PCA and UMAP classification of vegetable oils with tidymodels & base R | Maria Dermit
…
In the operations we see that the data has been [trained].

Great! But these are still not the components 🤔. We need to finalise that prepared recipe by juicing it!

Juicing the recipe

We need to apply these operation to the data; juice returns a tibble where all steps have been applied to the data.

pca_juiced <- juice(pca_prep)
pca_juiced

## # A tibble: 96 x 6
##    class      PC1    PC2     PC3      PC4      PC5
##    <fct>    <dbl>  <dbl>   <dbl>    <dbl>    <dbl>
##  1 pumpkin -1.22  -0.296 -0.245  -0.158    0.0882 
##  2 pumpkin -1.10  -0.771 -0.198  -0.00964 -0.0901 
##  3 pumpkin -1.08  -1.06  -0.212   0.0154   0.00279
##  4 pumpkin -1.14  -0.266 -0.192  -0.177   -0.137  
##  5 pumpkin -1.25  -0.995 -0.241   0.226   -0.186  
##  6 pumpkin  0.572 -0.500 -0.0821  0.0652   0.286  
##  7 pumpkin -1.13  -0.530 -0.202  -0.0640  -0.0592 
##  8 pumpkin -1.13  -0.530 -0.202  -0.0640  -0.0592 
##  9 pumpkin -1.08  -1.06  -0.212   0.0154   0.00279
## 10 pumpkin -1.14  -0.266 -0.192  -0.177   -0.137  
## # … with 86 more rows
…
