Word network of Bioconductor packages | Maria Dermit
…
bpi_description <- bpi %>%
  dplyr::select(Package, Description) %>%
  unnest_tokens(word, Description) %>%
  anti_join(stop_words)

Note that the number of words from Title is 11932 and the number
of words from Description is 59370, so package Descriptions
contain on average 5 times the words of package Titles.

We can have a look at how the tokenised titles for each package look like:

bpi_title

## # A tibble: 11,932 x 2
##    Package word      
##    <chr>   <chr>     
##  1 a4      automated 
##  2 a4      affymetrix
##  3 a4      array     
##  4 a4      analysis  
##  5 a4      umbrella  
##  6 a4      package   
##  7 a4Base  automated 
##  8 a4Base  affymetrix
##  9 a4Base  array     
## 10 a4Base  analysis  
## # … with 11,922 more rows
…
